altgraph==0.16.1
backcall==0.1.0
decorator==4.3.2
future==0.17.1
ipython==7.3.0
ipython-genutils==0.2.0
jedi==0.13.3
macholib==1.11
parso==0.3.4
pefile==2018.8.8
pexpect==4.6.0
pickleshare==0.7.5
prompt-toolkit==2.0.9
psutil==5.5.1
ptyprocess==0.6.0
Pygments==2.3.1
PyInstaller==3.4
six==1.12.0
traitlets==4.3.2
wcwidth==0.1.7
